{
    "name": "reskins-bobs",
    "version": "2.1.5",
    "factorio_version": "1.1",
    "title": "Artisanal Reskins: Bob's Mods",
    "author": "Kirazy",
    "contact": "kirazy@live.com",
    "homepage": "https://forums.factorio.com/viewtopic.php?f=51&t=85707",
    "dependencies": [
        "base",
        "reskins-library >= 2.1.0",
        "? bobassembly",
        "? bobelectronics",
        "? bobgreenhouse",
        "? bobinserters",
        "? boblibrary",
        "? boblogistics",
        "? bobmining",
        "? bobmodules",
        "? bobores",
        "? bobplates",
        "? bobpower",
        "? bobrevamp",
        "? bobtech",
        "? bobwarfare",
        "(?) angelssmelting",
        "(?) CircuitProcessing",
        "(?) NauvisDay",
        "! bobmods_gfxtweak"
    ]
}