{
    "name": "TrainSpeeds",
    "version": "0.1.15",
    "title": "Rivens Realistic Train Acceleration",
    "author": "Riven",
    "contact": "",
    "homepage": "",
    "factorio_version": "1.1",
    "dependencies": ["base >= 1.1", "? cargo-ships"],
    "description": "This mod makes train acceleration realistic and depend on cargo."
}
